Tutorial 1: Introduction
…
First lets once again reload the data in a slightly different format:

raven <- tibble(text=read_file("http://chroniclingamerica.loc.gov/lccn/sn85055199/1849-11-28/ed-1/seq-1/ocr.txt")) 

(Notice the comments in the code block above?)

Ok, so lets do a little basic text analysis.

With the computer we can very easily start counting, for instance counting various tokens in the text, such as individual words

raven %>% 
  unnest_tokens(word,text) %>%
  count(word,sort=T)

## # A tibble: 1,874 x 2
##    word      n
##    <chr> <int>
##  1 the     296
##  2 and     170
##  3 a       122
##  4 of      114
##  5 to      114
##  6 in       95
##  7 it       94
##  8 he       86
##  9 was      76
## 10 i        66
## # ... with 1,864 more rows
…
In addition to words, R makes it very easy to count (and compare, etc.) other units of language, such as bigrams, trigrams, and so forth. Units of n-length words are called Ngrams. When building an index of ngrams, each possible sequence of n words is recorded, as if a lens with a n-words-long aperture is sliding along the text, taking a snapshot at each position. Below were counting units of 5 words from our newspaper text data.

raven %>%
  unnest_tokens(word,text,token="ngrams",n=5) %>%
  count(word,sort=T)

## # A tibble: 5,587 x 2
##    word                                  n
##    <chr>                             <int>
##  1 maiden whom the angels name           3
##  2 and forth across the room             2
##  3 and radiant maiden whom the           2
##  4 back and forth across the             2
##  5 beguiling my sad fancy into           2
##  6 by the side of it                     2
##  7 entrance at my chamber door           2
##  8 entreating entrance at my chamber     2
##  9 evil prophet still if bird            2
## 10 has not been such a                   2
## # ... with 5,577 more rows
…
newspaperPages <- data_frame(
  text = c(text=read_file("http://chroniclingamerica.loc.gov/lccn/sn85055199/1849-11-28/ed-1/seq-1/ocr.txt"),text=read_file("http://chroniclingamerica.loc.gov/lccn/sn98060050/1845-02-28/ed-1/seq-1/ocr.txt")),
  title = c("LewisburgChronicle","VermontPhoenix"))

Lets look at all the five-grams on both the pages weve loaded now. You should see a dataframe (a spreadsheet, essentially) with two columns: the first with the newspaper names and the second with the five-grams for each listed. The five-grams are grouped and counted, so you can see how many times each is used in each paper. We only have two pages in our dataset, so most of them will only appear once, but there is some duplication even across so little text.

Then run:

newspaperPages %>% 
  unnest_tokens(word,text,token = "ngrams", n = 5) %>% # <- New
  group_by(title, word) %>% 
  summarize(count = n()) %>%
  arrange(desc(count)) 

## # A tibble: 11,659 x 3
## # Groups:   title [2]
##    title              word                              count
##    <chr>              <chr>                             <int>
##  1 LewisburgChronicle maiden whom the angels name           3
##  2 VermontPhoenix     maiden whom the angels name           3
##  3 LewisburgChronicle and forth across the room             2
##  4 LewisburgChronicle and radiant maiden whom the           2
##  5 LewisburgChronicle back and forth across the             2
##  6 LewisburgChronicle beguiling my sad fancy into           2
##  7 LewisburgChronicle by the side of it                     2
##  8 LewisburgChronicle entrance at my chamber door           2
##  9 LewisburgChronicle entreating entrance at my chamber     2
## 10 LewisburgChronicle evil prophet still if bird            2
## # ... with 11,649 more rows
…
We can also manipulate the way the dataframe itself looks. By spreading the data into two columns, we can more easily see which ngrams appear on both pages.

newspaperPages %>%
  unnest_tokens(word,text,token = "ngrams", n=5) %>%
  group_by(title,word) %>% 
  summarize(count=n()) %>% 
  spread(title,count,fill=0) %>%
  filter(LewisburgChronicle >= 1 & VermontPhoenix >= 1) 

## # A tibble: 191 x 3
##    word                          LewisburgChronicle VermontPhoenix
##    <chr>                                      <dbl>          <dbl>
##  1 a moment and this mystery                      1              1
##  2 a rare and radiant maiden                      1              1
##  3 a sainted maiden whom the                      1              1
##  4 a stately raven of the                         1              1
##  5 a token of that lie                            1              1
##  6 above my chamber door and                      1              1
##  7 above my chamber door perched                  1              1
##  8 ah distinctly i remember it                    1              1
##  9 all the seeming of a                           1              1
## 10 an echo murmured back the                      1              1
## # ... with 181 more rows
…
